<svg width="64" height="64" viewBox="0 0 64 64" version="1.1" xmlns="http://www.w3.org/2000/svg" xmlns:xlink="http://www.w3.org/1999/xlink">
<title>ico_farmasi</title>
<desc>Created using Figma</desc>
<g id="Canvas" transform="translate(-310 -6556)">
<g id="ico_farmasi">
<g id="Ellipse">
<use xlink:href="#path0_fill" transform="translate(312 6558)" fill="#0052A8"/>
</g>
<g id="noun_1276651">
<g id="Group">
<g id="Group">
<g id="Vector">
<use xlink:href="#path1_fill" transform="matrix(0.707107 0.707107 -0.707107 0.707107 352.017 6556.02)" fill="#F1F7FF"/>
</g>
<g id="Vector">
<use xlink:href="#path2_fill" transform="matrix(0.707107 0.707107 -0.707107 0.707107 335.218 6585.42)" fill="#F1F7FF"/>
</g>
<g id="Vector">
<use xlink:href="#path2_fill" transform="matrix(0.707107 0.707107 -0.707107 0.707107 335.218 6593.81)" fill="#F1F7FF"/>
</g>
<g id="Vector">
<use xlink:href="#path2_fill" transform="matrix(0.707107 0.707107 -0.707107 0.707107 326.818 6593.81)" fill="#F1F7FF"/>
</g>
</g>
</g>
</g>
</g>
</g>
<defs>
<path id="path0_fill" d="M 60 30C 60 46.5685 46.5685 60 30 60C 13.4315 60 0 46.5685 0 30C 0 13.4315 13.4315 0 30 0C 46.5685 0 60 13.4315 60 30Z"/>
<path id="path1_fill" d="M 14.8492 0C 6.66137 0 0 6.28982 0 14.0259L 0 45.3711C 0 53.1042 6.66137 59.397 14.8492 59.397C 23.0371 59.397 29.6985 53.1071 29.6985 45.3711L 29.6985 14.0259C 29.6985 6.28982 23.0371 0 14.8492 0ZM 14.8492 2.9697C 21.4007 2.9697 26.7286 7.9291 26.7286 14.0259L 26.7286 26.7273L 2.96985 26.7273L 2.96985 14.0259C 2.96985 7.9291 8.29775 2.9697 14.8492 2.9697ZM 14.8492 56.4243C 8.29775 56.4243 2.96985 51.4649 2.96985 45.3681L 2.96985 29.697L 26.7286 29.697L 26.7286 45.3681C 26.7286 51.4649 21.4007 56.4243 14.8492 56.4243Z"/>
<path id="path2_fill" d="M 2.96985 5.9394C 4.61005 5.9394 5.9397 4.60982 5.9397 2.9697C 5.9397 1.32958 4.61005 0 2.96985 0C 1.32965 0 0 1.32958 0 2.9697C 0 4.60982 1.32965 5.9394 2.96985 5.9394Z"/>
</defs>
</svg>
